paralelo_serial/P1_paralelo_serial.vcd
$date
	Fri Oct 22 22:14:19 2021
$end
$version
	Icarus Verilog
$end
$timescale
	100ps
$end
$scope module BUF $end
$var wire 1 ! A $end
$var wire 1 " Y $end
$upscope $end
$scope module Banco_pruebas $end
$var wire 1 # data_out $end
$var wire 1 $ valid_in $end
$var wire 1 % reset_L $end
$var wire 8 & data_in [7:0] $end
$var wire 1 ' clk_4f $end
$var wire 1 ( clk_32f $end
$scope module paralelo_serial_conductual $end
$var wire 1 $ valid_in $end
$var wire 1 % reset_L $end
$var wire 8 ) data_in [7:0] $end
$var wire 1 ' clk_4f $end
$var wire 1 ( clk_32f $end
$var reg 1 * data_out $end
$var reg 3 + selector [2:0] $end
$var reg 8 , tmp_out [7:0] $end
$upscope $end
$scope module paralelo_serial_estrcutural $end
$var wire 1 # data_out $end
$var wire 1 $ valid_in $end
$var wire 8 - tmp_out [7:0] $end
$var wire 3 . selector [2:0] $end
$var wire 1 % reset_L $end
$var wire 8 / data_in [7:0] $end
$var wire 1 ' clk_4f $end
$var wire 1 ( clk_32f $end
$var wire 1 0 _067_ $end
$var wire 1 1 _066_ $end
$var wire 1 2 _065_ $end
$var wire 1 3 _064_ $end
$var wire 1 4 _063_ $end
$var wire 1 5 _062_ $end
$var wire 1 6 _061_ $end
$var wire 1 7 _060_ $end
$var wire 1 8 _059_ $end
$var wire 1 9 _058_ $end
$var wire 1 : _057_ $end
$var wire 1 ; _056_ $end
$var wire 1 < _055_ $end
$var wire 1 = _054_ $end
$var wire 1 > _053_ $end
$var wire 1 ? _052_ $end
$var wire 1 @ _051_ $end
$var wire 1 A _050_ $end
$var wire 1 B _049_ $end
$var wire 1 C _048_ $end
$var wire 1 D _047_ $end
$var wire 1 E _046_ $end
$var wire 1 F _045_ $end
$var wire 1 G _044_ $end
$var wire 1 H _043_ $end
$var wire 1 I _042_ $end
$var wire 1 J _041_ $end
$var wire 1 K _040_ $end
$var wire 1 L _039_ $end
$var wire 1 M _038_ $end
$var wire 1 N _037_ $end
$var wire 1 O _036_ $end
$var wire 1 P _035_ $end
$var wire 1 Q _034_ $end
$var wire 1 R _033_ $end
$var wire 1 S _032_ $end
$var wire 1 T _031_ $end
$var wire 1 U _030_ $end
$var wire 1 V _029_ $end
$var wire 1 W _028_ $end
$var wire 1 X _027_ $end
$var wire 1 Y _026_ $end
$var wire 1 Z _025_ $end
$var wire 1 [ _024_ $end
$var wire 1 \ _023_ $end
$var wire 1 ] _022_ $end
$var wire 1 ^ _021_ $end
$var wire 1 _ _020_ $end
$var wire 1 ` _019_ $end
$var wire 1 a _018_ $end
$var wire 1 b _017_ $end
$var wire 1 c _016_ $end
$var wire 1 d _015_ $end
$var wire 1 e _014_ $end
$var wire 1 f _013_ $end
$var wire 1 g _012_ $end
$var wire 1 h _011_ $end
$var wire 1 i _010_ $end
$var wire 1 j _009_ $end
$var wire 1 k _008_ $end
$var wire 1 l _007_ $end
$var wire 1 m _006_ $end
$var wire 1 n _005_ $end
$var wire 1 o _004_ $end
$var wire 1 p _003_ $end
$var wire 1 q _002_ $end
$var wire 8 r _001_ [7:0] $end
$var wire 3 s _000_ [2:0] $end
$scope module _068_ $end
$var wire 1 _ Y $end
$var wire 1 % A $end
$upscope $end
$scope module _069_ $end
$var wire 1 t A $end
$var wire 1 u Y $end
$upscope $end
$scope module _070_ $end
$var wire 1 v A $end
$var wire 1 X Y $end
$upscope $end
$scope module _071_ $end
$var wire 1 W Y $end
$var wire 1 $ A $end
$upscope $end
$scope module _072_ $end
$var wire 1 w A $end
$var wire 1 V Y $end
$upscope $end
$scope module _073_ $end
$var wire 1 x A $end
$var wire 1 U Y $end
$upscope $end
$scope module _074_ $end
$var wire 1 y A $end
$var wire 1 T Y $end
$upscope $end
$scope module _075_ $end
$var wire 1 z A $end
$var wire 1 S Y $end
$upscope $end
$scope module _076_ $end
$var wire 1 { A $end
$var wire 1 R Y $end
$upscope $end
$scope module _077_ $end
$var wire 1 | A $end
$var wire 1 Q Y $end
$upscope $end
$scope module _078_ $end
$var wire 1 } A $end
$var wire 1 P Y $end
$upscope $end
$scope module _079_ $end
$var wire 1 ~ A $end
$var wire 1 O Y $end
$upscope $end
$scope module _080_ $end
$var wire 1 !" A $end
$var wire 1 N Y $end
$upscope $end
$scope module _081_ $end
$var wire 1 "" A $end
$var wire 1 M Y $end
$upscope $end
$scope module _082_ $end
$var wire 1 #" A $end
$var wire 1 L Y $end
$upscope $end
$scope module _083_ $end
$var wire 1 # A $end
$var wire 1 W B $end
$var wire 1 K Y $end
$upscope $end
$scope module _084_ $end
$var wire 1 $" A $end
$var wire 1 %" B $end
$var wire 1 J Y $end
$upscope $end
$scope module _085_ $end
$var wire 1 J A $end
$var wire 1 I Y $end
$upscope $end
$scope module _086_ $end
$var wire 1 &" A $end
$var wire 1 I B $end
$var wire 1 H Y $end
$upscope $end
$scope module _087_ $end
$var wire 1 '" A $end
$var wire 1 (" B $end
$var wire 1 G Y $end
$upscope $end
$scope module _088_ $end
$var wire 1 G A $end
$var wire 1 F Y $end
$upscope $end
$scope module _089_ $end
$var wire 1 N A $end
$var wire 1 G B $end
$var wire 1 E Y $end
$upscope $end
$scope module _090_ $end
$var wire 1 )" A $end
$var wire 1 X B $end
$var wire 1 D Y $end
$upscope $end
$scope module _091_ $end
$var wire 1 D A $end
$var wire 1 C Y $end
$upscope $end
$scope module _092_ $end
$var wire 1 *" A $end
$var wire 1 C B $end
$var wire 1 B Y $end
$upscope $end
$scope module _093_ $end
$var wire 1 +" A $end
$var wire 1 ," B $end
$var wire 1 A Y $end
$upscope $end
$scope module _094_ $end
$var wire 1 -" A $end
$var wire 1 A B $end
$var wire 1 @ Y $end
$upscope $end
$scope module _095_ $end
$var wire 1 B A $end
$var wire 1 @ B $end
$var wire 1 ? Y $end
$upscope $end
$scope module _096_ $end
$var wire 1 ." A $end
$var wire 1 E B $end
$var wire 1 > Y $end
$upscope $end
$scope module _097_ $end
$var wire 1 H A $end
$var wire 1 > B $end
$var wire 1 = Y $end
$upscope $end
$scope module _098_ $end
$var wire 1 ? A $end
$var wire 1 = B $end
$var wire 1 < Y $end
$upscope $end
$scope module _099_ $end
$var wire 1 /" A $end
$var wire 1 F B $end
$var wire 1 ; Y $end
$upscope $end
$scope module _100_ $end
$var wire 1 M A $end
$var wire 1 D B $end
$var wire 1 : Y $end
$upscope $end
$scope module _101_ $end
$var wire 1 0" A $end
$var wire 1 A B $end
$var wire 1 9 Y $end
$upscope $end
$scope module _102_ $end
$var wire 1 L A $end
$var wire 1 J B $end
$var wire 1 8 Y $end
$upscope $end
$scope module _103_ $end
$var wire 1 ; A $end
$var wire 1 9 B $end
$var wire 1 7 Y $end
$upscope $end
$scope module _104_ $end
$var wire 1 : A $end
$var wire 1 8 B $end
$var wire 1 6 Y $end
$upscope $end
$scope module _105_ $end
$var wire 1 1" A $end
$var wire 1 6 B $end
$var wire 1 5 Y $end
$upscope $end
$scope module _106_ $end
$var wire 1 7 A $end
$var wire 1 5 B $end
$var wire 1 4 Y $end
$upscope $end
$scope module _107_ $end
$var wire 1 < A $end
$var wire 1 4 B $end
$var wire 1 3 Y $end
$upscope $end
$scope module _108_ $end
$var wire 1 3 B $end
$var wire 1 2 Y $end
$var wire 1 $ A $end
$upscope $end
$scope module _109_ $end
$var wire 1 K A $end
$var wire 1 2 B $end
$var wire 1 ] Y $end
$upscope $end
$scope module _110_ $end
$var wire 1 G A $end
$var wire 1 D B $end
$var wire 1 2" Y $end
$upscope $end
$scope module _111_ $end
$var wire 1 3" A $end
$var wire 1 J B $end
$var wire 1 1 Y $end
$upscope $end
$scope module _112_ $end
$var wire 1 4" A $end
$var wire 1 J B $end
$var wire 1 0 Y $end
$upscope $end
$scope module _113_ $end
$var wire 1 0 A $end
$var wire 1 \ Y $end
$upscope $end
$scope module _114_ $end
$var wire 1 1 A $end
$var wire 1 \ B $end
$var wire 1 5" Y $end
$upscope $end
$scope module _115_ $end
$var wire 1 6" B $end
$var wire 1 [ Y $end
$var wire 1 $ A $end
$upscope $end
$scope module _116_ $end
$var wire 1 [ A $end
$var wire 1 7" Y $end
$upscope $end
$scope module _117_ $end
$var wire 1 8" B $end
$var wire 1 Z Y $end
$var wire 1 $ A $end
$upscope $end
$scope module _118_ $end
$var wire 1 Z A $end
$var wire 1 9" Y $end
$upscope $end
$scope module _119_ $end
$var wire 1 T B $end
$var wire 1 :" Y $end
$var wire 1 $ A $end
$upscope $end
$scope module _120_ $end
$var wire 1 S B $end
$var wire 1 ;" Y $end
$var wire 1 $ A $end
$upscope $end
$scope module _121_ $end
$var wire 1 R B $end
$var wire 1 <" Y $end
$var wire 1 $ A $end
$upscope $end
$scope module _122_ $end
$var wire 1 Q B $end
$var wire 1 =" Y $end
$var wire 1 $ A $end
$upscope $end
$scope module _123_ $end
$var wire 1 >" B $end
$var wire 1 Y Y $end
$var wire 1 $ A $end
$upscope $end
$scope module _124_ $end
$var wire 1 Y A $end
$var wire 1 ?" Y $end
$upscope $end
$scope module _125_ $end
$var wire 1 O B $end
$var wire 1 @" Y $end
$var wire 1 $ A $end
$upscope $end
$scope module _126_ $end
$var wire 1 V B $end
$var wire 1 q Y $end
$var wire 1 % A $end
$upscope $end
$scope module _127_ $end
$var wire 1 U B $end
$var wire 1 p Y $end
$var wire 1 % A $end
$upscope $end
$scope module _128_ $end
$var wire 1 T B $end
$var wire 1 o Y $end
$var wire 1 % A $end
$upscope $end
$scope module _129_ $end
$var wire 1 S B $end
$var wire 1 n Y $end
$var wire 1 % A $end
$upscope $end
$scope module _130_ $end
$var wire 1 R B $end
$var wire 1 m Y $end
$var wire 1 % A $end
$upscope $end
$scope module _131_ $end
$var wire 1 Q B $end
$var wire 1 l Y $end
$var wire 1 % A $end
$upscope $end
$scope module _132_ $end
$var wire 1 P B $end
$var wire 1 k Y $end
$var wire 1 % A $end
$upscope $end
$scope module _133_ $end
$var wire 1 O B $end
$var wire 1 j Y $end
$var wire 1 % A $end
$upscope $end
$scope module _134_ $end
$var wire 1 A" B $end
$var wire 1 i Y $end
$var wire 1 % A $end
$upscope $end
$scope module _135_ $end
$var wire 1 B" B $end
$var wire 1 h Y $end
$var wire 1 % A $end
$upscope $end
$scope module _136_ $end
$var wire 1 C" B $end
$var wire 1 g Y $end
$var wire 1 % A $end
$upscope $end
$scope module _137_ $end
$var wire 1 D" B $end
$var wire 1 f Y $end
$var wire 1 % A $end
$upscope $end
$scope module _138_ $end
$var wire 1 E" B $end
$var wire 1 e Y $end
$var wire 1 % A $end
$upscope $end
$scope module _139_ $end
$var wire 1 F" B $end
$var wire 1 d Y $end
$var wire 1 % A $end
$upscope $end
$scope module _140_ $end
$var wire 1 G" B $end
$var wire 1 c Y $end
$var wire 1 % A $end
$upscope $end
$scope module _141_ $end
$var wire 1 H" B $end
$var wire 1 b Y $end
$var wire 1 % A $end
$upscope $end
$scope module _142_ $end
$var wire 1 ` Y $end
$var wire 1 % A $end
$upscope $end
$scope module _143_ $end
$var wire 1 a Y $end
$var wire 1 % A $end
$upscope $end
$scope module _144_ $end
$var wire 1 ^ Y $end
$var wire 1 % A $end
$upscope $end
$scope module _145_ $end
$var wire 1 I" D $end
$var wire 1 i R $end
$var wire 1 q S $end
$var wire 1 ( C $end
$var reg 1 J" Q $end
$upscope $end
$scope module _146_ $end
$var wire 1 K" D $end
$var wire 1 h R $end
$var wire 1 p S $end
$var wire 1 ( C $end
$var reg 1 L" Q $end
$upscope $end
$scope module _147_ $end
$var wire 1 M" D $end
$var wire 1 g R $end
$var wire 1 o S $end
$var wire 1 ( C $end
$var reg 1 N" Q $end
$upscope $end
$scope module _148_ $end
$var wire 1 O" D $end
$var wire 1 f R $end
$var wire 1 n S $end
$var wire 1 ( C $end
$var reg 1 P" Q $end
$upscope $end
$scope module _149_ $end
$var wire 1 Q" D $end
$var wire 1 e R $end
$var wire 1 m S $end
$var wire 1 ( C $end
$var reg 1 R" Q $end
$upscope $end
$scope module _150_ $end
$var wire 1 S" D $end
$var wire 1 d R $end
$var wire 1 l S $end
$var wire 1 ( C $end
$var reg 1 T" Q $end
$upscope $end
$scope module _151_ $end
$var wire 1 U" D $end
$var wire 1 c R $end
$var wire 1 k S $end
$var wire 1 ( C $end
$var reg 1 V" Q $end
$upscope $end
$scope module _152_ $end
$var wire 1 W" D $end
$var wire 1 b R $end
$var wire 1 j S $end
$var wire 1 ( C $end
$var reg 1 X" Q $end
$upscope $end
$scope module _153_ $end
$var wire 1 Y" D $end
$var wire 1 a R $end
$var wire 1 Z" S $end
$var wire 1 ( C $end
$var reg 1 [" Q $end
$upscope $end
$scope module _154_ $end
$var wire 1 \" D $end
$var wire 1 ` R $end
$var wire 1 ]" S $end
$var wire 1 ( C $end
$var reg 1 ^" Q $end
$upscope $end
$scope module _155_ $end
$var wire 1 _" D $end
$var wire 1 _ R $end
$var wire 1 `" S $end
$var wire 1 ( C $end
$var reg 1 a" Q $end
$upscope $end
$scope module _156_ $end
$var wire 1 ] D $end
$var wire 1 ^ R $end
$var wire 1 b" S $end
$var wire 1 ( C $end
$var reg 1 c" Q $end
$upscope $end
$upscope $end
$scope module probador $end
$var wire 1 # data_out $end
$var reg 1 ( clk_32f $end
$var reg 1 ' clk_4f $end
$var reg 8 d" data_in [7:0] $end
$var reg 1 % reset_L $end
$var reg 1 $ valid_in $end
$upscope $end
$upscope $end
$scope module DFF $end
$var wire 1 e" C $end
$var wire 1 f" D $end
$var reg 1 g" Q $end
$upscope $end
$enddefinitions $end
#0
$dumpvars
xg"
zf"
ze"
b11111111 d"
0c"
0b"
0a"
0`"
0_"
0^"
0]"
0\"
0["
0Z"
1Y"
1X"
1W"
1V"
0U"
1T"
1S"
1R"
1Q"
1P"
1O"
1N"
1M"
1L"
0K"
1J"
0I"
1H"
1G"
1F"
1E"
1D"
1C"
1B"
1A"
1@"
0?"
1>"
1="
1<"
1;"
1:"
09"
18"
07"
16"
05"
04"
03"
02"
01"
10"
1/"
0."
1-"
0,"
0+"
1*"
0)"
0("
1'"
1&"
0%"
0$"
1#"
1""
1!"
1~
1}
1|
1{
1z
1y
1x
1w
0v
1u
0t
b1 s
b10111100 r
1q
1p
1o
1n
1m
1l
1k
1j
0i
0h
0g
0f
0e
0d
0c
0b
1a
1`
1_
1^
0]
1\
1[
1Z
1Y
1X
1W
0V
0U
0T
0S
0R
0Q
0P
0O
0N
0M
0L
1K
1J
0I
1H
1G
0F
0E
1D
0C
1B
1A
0@
1?
1>
0=
0<
1;
0:
09
08
17
16
15
04
13
12
11
00
b11111111 /
b0 .
b11111111 -
b11111111 ,
b0 +
0*
b11111111 )
1(
1'
b11111111 &
0%
0$
0#
z"
z!
$end
#10000000000
0(
#20000000000
1(
#30000000000
0(
#40000000000
1(
#50000000000
0(
#60000000000
1(
#70000000000
0(
#80000000000
1(
0'
#90000000000
0(
#100000000000
1(
#110000000000
0(
#120000000000
1(
#130000000000
0(
#140000000000
1(
#150000000000
0(
#160000000000
1U"
1K"
1I"
1]
1?"
19"
b11111111 r
17"
0Y
0Z
0[
02
0j
0k
0l
0m
0n
0o
0p
0q
0W
0^
0a
0`
0_
1$
1%
1(
1'
#170000000000
0(
#180000000000
07
06
0B
1\"
1@
19
1:
12"
1C
0A
0D
0Y"
0'"
b10 s
0u
1+"
1)"
1$"
1t
b1 +
1*
b1 .
1["
1#
1c"
1(
#190000000000
0(
#200000000000
1]
02
13
1=
0<
17
0>
0?
0;
16
1E
1B
1\"
1F
0:
12"
0G
0C
1D
1Y"
1'"
b11 s
1u
0X
0+"
0)"
0$"
0t
1,"
1("
1%"
1v
b10 +
0["
b10 .
1^"
1(
#210000000000
0(
#220000000000
07
1_"
1>
15"
1;
0\"
06
0E
02"
0H
0\
0F
18
10
1G
1I
0J
0Y"
0'"
b100 s
0u
1+"
1)"
1$"
1t
b11 +
b11 .
1["
1(
#230000000000
0(
#240000000000
05
1?
17
16
1_"
1H
15"
0@
09
08
01
0I
1\
1Y"
1'"
1A
1J
00
0>
b101 s
1u
1X
0+"
0)"
0$"
0t
0,"
0("
0%"
0v
14"
13"
11"
1."
b100 +
0["
0^"
b100 .
1a"
1(
0'
#250000000000
0(
#260000000000
1]
02
13
04
15
07
06
0B
1\"
1@
19
1:
12"
1C
0A
0D
0Y"
0'"
b110 s
0u
1+"
1)"
1$"
1t
b101 +
b101 .
1["
1(
#270000000000
0(
#280000000000
17
05
0?
0;
16
1E
1B
1\"
1F
0:
12"
0G
0C
1D
1Y"
1'"
b111 s
1u
0X
0+"
0)"
0$"
0t
1,"
1("
1%"
1v
b110 +
0["
b110 .
1^"
1(
#290000000000
0(
#300000000000
07
15
0_"
1;
0\"
06
05"
0E
02"
0H
0F
18
11
1G
1I
0J
0Y"
0'"
b0 s
0u
1+"
1)"
1$"
1t
b111 +
b111 .
1["
1(
#310000000000
0(
#320000000000
0=
1?
17
16
0_"
1H
05"
0@
09
08
0I
1\
1Y"
1'"
1A
1J
00
1>
b1 s
1u
1X
0+"
0)"
0$"
0t
0,"
0("
0%"
0v
04"
03"
01"
0."
b0 +
0["
0^"
b0 .
0a"
1(
1'
#330000000000
0(
#340000000000
07
06
0B
1\"
1@
19
1:
12"
1C
0A
0D
0Y"
0'"
b10 s
0u
1+"
1)"
1$"
1t
b1 +
b1 .
1["
1(
#350000000000
0(
#360000000000
1]
02
13
1=
0<
17
0>
0?
0;
16
1E
1B
1\"
1F
0:
12"
0G
0C
1D
1Y"
1'"
b11 s
1u
0X
0+"
0)"
0$"
0t
1,"
1("
1%"
1v
b10 +
0["
b10 .
1^"
1(
#370000000000
0(
#380000000000
07
1_"
1>
15"
1;
0\"
06
0E
02"
0H
0\
0F
18
10
1G
1I
0J
0Y"
0'"
b100 s
0u
1+"
1)"
1$"
1t
b11 +
b11 .
1["
1(
#390000000000
0(
#400000000000
05
1?
17
16
1_"
1H
15"
0@
09
08
01
0I
1\
1Y"
1'"
1A
1J
00
0>
b101 s
1u
1X
0+"
0)"
0$"
0t
0,"
0("
0%"
0v
14"
13"
11"
1."
b100 +
0["
0^"
b100 .
1a"
1(
0'
#410000000000
0(
#420000000000
1]
02
13
04
15
07
06
0B
1\"
1@
19
1:
12"
1C
0A
0D
0Y"
0'"
b110 s
0u
1+"
1)"
1$"
1t
b101 +
b101 .
1["
1(
#430000000000
0(
#440000000000
17
05
0?
0;
16
1E
1B
1\"
1F
0:
12"
0G
0C
1D
1Y"
1'"
b111 s
1u
0X
0+"
0)"
0$"
0t
1,"
1("
1%"
1v
b110 +
0["
b110 .
1^"
1(
#450000000000
0(
#460000000000
07
15
0_"
1;
0\"
06
05"
0E
02"
0H
0F
18
11
1G
1I
0J
0Y"
0'"
b0 s
0u
1+"
1)"
1$"
1t
b111 +
b111 .
1["
1(
#470000000000
0(
#480000000000
0=
1?
17
16
0_"
1H
05"
0@
09
08
0I"
0Q"
0I
1\
07"
b11101110 r
0<"
1Y"
1'"
1A
1J
00
1>
1[
b1 s
1u
1X
1R
1V
0+"
0)"
0$"
0t
0,"
0("
0%"
0v
04"
03"
01"
0."
0E"
0A"
06"
0{
0w
b0 +
0["
0^"
b0 .
0a"
b11101110 &
b11101110 )
b11101110 /
b11101110 d"
1(
1'
#490000000000
0(
#500000000000
07
06
0B
1\"
1@
19
1:
12"
1C
0A
0D
0Y"
0'"
1L
b10 s
0u
0#"
0&"
1+"
1)"
1$"
1t
b1 +
b11101110 ,
0J"
b11101110 -
0R"
b1 .
1["
1(
#510000000000
0(
#520000000000
1]
02
13
1=
0<
17
0>
0?
0;
16
1E
1B
1\"
1F
0:
12"
0G
0C
1D
1Y"
1'"
b11 s
1u
0X
0+"
0)"
0$"
0t
1,"
1("
1%"
1v
b10 +
0["
b10 .
1^"
1(
#530000000000
0(
#540000000000
0]
12
03
1<
0=
07
1_"
1>
15"
1;
0\"
0E
02"
0\
0F
10
1G
1I
0J
0Y"
0'"
b100 s
0u
1+"
1)"
1$"
1t
b11 +
b11 .
1["
1(
#550000000000
0(
#560000000000
1]
02
13
1?
17
1_"
0<
15"
0@
09
01
04
1=
0I
1\
1Y"
1'"
1A
1J
00
05
0>
b101 s
1u
1X
0+"
0)"
0$"
0t
0,"
0("
0%"
0v
14"
13"
11"
1."
b100 +
0*
0["
0^"
b100 .
1a"
0#
0c"
1(
0'
#570000000000
0(
#580000000000
1]
02
13
04
15
07
06
0B
1\"
1@
19
1:
12"
1C
0A
0D
0Y"
0'"
b110 s
0u
1+"
1)"
1$"
1t
b101 +
1*
b101 .
1["
1#
1c"
1(
#590000000000
0(
#600000000000
17
05
0?
0;
16
1E
1B
1\"
1F
0:
12"
0G
0C
1D
1Y"
1'"
b111 s
1u
0X
0+"
0)"
0$"
0t
1,"
1("
1%"
1v
b110 +
0["
b110 .
1^"
1(
#610000000000
0(
#620000000000
0]
12
03
14
07
0_"
1;
0\"
05"
0E
02"
0F
11
1G
1I
0J
0Y"
0'"
b0 s
0u
1+"
1)"
1$"
1t
b111 +
b111 .
1["
1(
#630000000000
0(
#640000000000
1]
02
1?
17
0_"
13
0<
05"
0@
09
04
0=
0I
1\
1Y"
1'"
1A
1J
00
15
1>
b1 s
1u
1X
0+"
0)"
0$"
0t
0,"
0("
0%"
0v
04"
03"
01"
0."
b0 +
0*
0["
0^"
b0 .
0a"
0#
0c"
1(
1'
#650000000000
0(
#660000000000
07
06
0B
1\"
1@
19
1:
12"
1C
0A
0D
0Y"
0'"
b10 s
0u
1+"
1)"
1$"
1t
b1 +
1*
b1 .
1["
1#
1c"
1(
#670000000000
0(
#680000000000
1]
02
13
1=
0<
17
0>
0?
0;
16
1E
1B
1\"
1F
0:
12"
0G
0C
1D
1Y"
1'"
b11 s
1u
0X
0+"
0)"
0$"
0t
1,"
1("
1%"
1v
b10 +
0["
b10 .
1^"
1(
#690000000000
0(
#700000000000
0]
12
03
1<
0=
07
1_"
1>
15"
1;
0\"
0E
02"
0\
0F
10
1G
1I
0J
0Y"
0'"
b100 s
0u
1+"
1)"
1$"
1t
b11 +
b11 .
1["
1(
#710000000000
0(
#720000000000
1]
02
13
1?
17
1_"
0<
15"
0@
09
01
04
1=
0I
1\
1Y"
1'"
1A
1J
00
05
0>
b101 s
1u
1X
0+"
0)"
0$"
0t
0,"
0("
0%"
0v
14"
13"
11"
1."
b100 +
0*
0["
0^"
b100 .
1a"
0#
0c"
1(
0'
#730000000000
0(
#740000000000
1]
02
13
04
15
07
06
0B
1\"
1@
19
1:
12"
1C
0A
0D
0Y"
0'"
b110 s
0u
1+"
1)"
1$"
1t
b101 +
1*
b101 .
1["
1#
1c"
1(
#750000000000
0(
#760000000000
17
05
0?
0;
16
1E
1B
1\"
1F
0:
12"
0G
0C
1D
1Y"
1'"
b111 s
1u
0X
0+"
0)"
0$"
0t
1,"
1("
1%"
1v
b110 +
0["
b110 .
1^"
1(
#770000000000
0(
#780000000000
0]
12
03
14
07
0_"
1;
0\"
05"
0E
02"
0F
11
1G
1I
0J
0Y"
0'"
b0 s
0u
1+"
1)"
1$"
1t
b111 +
b111 .
1["
1(
#790000000000
0(
#800000000000
1]
02
1?
17
0_"
13
0<
05"
0@
09
04
0=
0I
1\
1Y"
1'"
1A
1J
00
15
1>
b1 s
1u
1X
0+"
0)"
0$"
0t
0,"
0("
0%"
0v
04"
03"
01"
0."
b0 +
0*
0["
0^"
b0 .
0a"
0#
0c"
1(
1'
