serial_paralelo/serial_paralelo.vcd
$date
	Fri Oct 22 22:27:32 2021
$end
$version
	Icarus Verilog
$end
$timescale
	100ps
$end
$scope module BUF $end
$var wire 1 ! A $end
$var wire 1 " Y $end
$upscope $end
$scope module DFFSR $end
$var wire 1 # C $end
$var wire 1 $ D $end
$var wire 1 % R $end
$var wire 1 & S $end
$var reg 1 ' Q $end
$upscope $end
$scope module NAND $end
$var wire 1 ( A $end
$var wire 1 ) B $end
$var wire 1 * Y $end
$upscope $end
$scope module NOR $end
$var wire 1 + A $end
$var wire 1 , B $end
$var wire 1 - Y $end
$upscope $end
$scope module NOT $end
$var wire 1 . A $end
$var wire 1 / Y $end
$upscope $end
$scope module bancoPruebas $end
$var wire 3 0 BC_contadorE [2:0] $end
$var wire 1 1 activeE $end
$var wire 1 2 valid_out $end
$var wire 8 3 data_outputE [7:0] $end
$var wire 8 4 data_output [7:0] $end
$var wire 1 5 data_input $end
$var wire 1 6 clk_4f $end
$var wire 1 7 clk_32f $end
$var wire 1 8 active $end
$var wire 3 9 BC_contador [2:0] $end
$scope module estructural $end
$var wire 3 : BC_contador [2:0] $end
$var wire 1 1 active_output $end
$var wire 3 ; contador [2:0] $end
$var wire 1 2 valid_out $end
$var wire 8 < data_output [7:0] $end
$var wire 1 5 data_input $end
$var wire 1 6 clk_4f $end
$var wire 1 7 clk_32f $end
$var wire 8 = bus_0 [0:7] $end
$scope module _0_ $end
$var wire 1 > D $end
$var wire 1 6 C $end
$var reg 1 ? Q $end
$upscope $end
$scope module _1_ $end
$var wire 1 5 D $end
$var wire 1 7 C $end
$var reg 1 @ Q $end
$upscope $end
$upscope $end
$scope module probador1 $end
$var wire 3 A BC_contadorE [2:0] $end
$var wire 1 1 active_inputE $end
$var wire 8 B data_outputE [7:0] $end
$var wire 8 C data_output [7:0] $end
$var wire 1 8 active_input $end
$var wire 3 D BC_contador [2:0] $end
$var reg 1 7 clk_32f $end
$var reg 1 6 clk_4f $end
$var reg 1 5 data_input $end
$var reg 1 2 valid_out $end
$upscope $end
$scope module serie_paralelo_1 $end
$var wire 1 7 clk_32f $end
$var wire 1 6 clk_4f $end
$var wire 1 5 data_input $end
$var wire 1 2 valid_out $end
$var reg 3 E BC_contador [2:0] $end
$var reg 1 8 active_output $end
$var reg 8 F bus_0 [0:7] $end
$var reg 3 G contador [2:0] $end
$var reg 8 H data_output [7:0] $end
$upscope $end
$upscope $end
$enddefinitions $end
#0
$dumpvars
bx H
bx G
bx F
b0 E
b0 D
bx C
bx B
b0 A
x@
x?
x>
bx =
bx <
b0 ;
b0 :
b0 9
x8
07
06
05
bx 4
bx 3
02
01
b0 0
z/
z.
x-
z,
z+
x*
z)
z(
x'
z&
z%
z$
z#
z"
z!
$end
#10
0>
b0xxxxxxx =
0@
17
#20
07
#30
17
#40
07
#50
17
#60
07
#70
15
17
#80
08
b0 G
b0xxxxxxx 3
b0xxxxxxx <
b0xxxxxxx B
0?
07
16
#90
1>
b1xxxxxxx F
05
b1xxxxxxx =
1@
b1 G
17
#100
07
#110
0>
b0xxxxxxx =
0@
15
b10xxxxxx F
b10 G
17
#120
07
#130
1>
b101xxxxx F
b1xxxxxxx =
1@
b11 G
17
#140
07
#150
b1011xxxx F
b100 G
17
#160
07
06
#170
b10111xxx F
b101 G
17
#180
07
#190
05
b101111xx F
b110 G
17
#200
07
#210
0>
b1011110x F
b0xxxxxxx =
0@
b111 G
17
#220
07
#230
15
b10111100 F
b0 G
17
#240
b10111100 4
b10111100 C
b10111100 H
07
16
#250
1>
12
05
b1xxxxxxx =
1@
b1 G
17
#260
07
#270
0>
b0xxxxxxx =
0@
15
b10 G
17
#280
07
#290
1>
b1xxxxxxx =
1@
b11 G
17
#300
07
#310
b100 G
17
#320
07
06
#330
b101 G
17
#340
07
#350
05
b110 G
17
#360
07
#370
0>
b0xxxxxxx =
0@
b111 G
17
#380
07
#390
15
b0 G
17
#400
b1 9
b1 D
b1 E
07
16
#410
1>
05
b1xxxxxxx =
1@
b1 G
17
#420
07
#430
0>
b0xxxxxxx =
0@
15
b10 G
17
#440
07
#450
1>
b1xxxxxxx =
1@
b11 G
17
#460
07
#470
b100 G
17
#480
07
06
#490
b101 G
17
#500
07
#510
05
b110 G
17
#520
07
#530
0>
b0xxxxxxx =
0@
b111 G
17
#540
07
#550
15
b0 G
17
#560
b10 9
b10 D
b10 E
07
16
#570
1>
05
b1xxxxxxx =
1@
b1 G
17
#580
07
#590
0>
b0xxxxxxx =
0@
15
b10 G
17
#600
07
#610
1>
b1xxxxxxx =
1@
b11 G
17
#620
07
#630
b100 G
17
#640
07
06
#650
b101 G
17
#660
07
#670
05
b110 G
17
#680
07
#690
0>
b0xxxxxxx =
0@
b111 G
17
#700
07
#710
b0 G
17
#720
b11 9
b11 D
b11 E
07
16
#730
b111100 F
15
b1 G
17
#740
07
#750
1>
b1xxxxxxx =
1@
05
b1111100 F
b10 G
17
#760
07
#770
0>
b1011100 F
b0xxxxxxx =
0@
b11 G
17
#780
07
#790
15
b1001100 F
b100 G
17
#800
07
06
#810
1>
05
b1xxxxxxx =
1@
b101 G
17
#820
07
#830
0>
b0xxxxxxx =
0@
15
b1001000 F
b110 G
17
#840
07
#850
1>
b1001010 F
b1xxxxxxx =
1@
b111 G
17
#860
07
#870
b1001011 F
b0 G
17
#880
b1xxxxxxx 3
b1xxxxxxx <
b1xxxxxxx B
1?
18
b1001011 4
b1001011 C
b1001011 H
b100 9
b100 D
b100 E
07
16
#890
b11001011 F
b1 G
17
#900
07
#910
05
b10 G
17
#920
07
#930
0>
15
b0xxxxxxx =
0@
b11 G
17
#940
07
#950
1>
b1xxxxxxx =
1@
05
b11011011 F
b100 G
17
#960
07
06
#970
0>
b11010011 F
b0xxxxxxx =
0@
b101 G
17
#980
07
#990
15
b110 G
17
#1000
07
#1010
1>
05
b1xxxxxxx =
1@
b111 G
17
#1020
07
#1030
0>
b0xxxxxxx =
0@
15
b11010010 F
b0 G
17
#1040
b11010010 4
b11010010 C
b11010010 H
b0xxxxxxx 3
b0xxxxxxx <
b0xxxxxxx B
0?
07
16
#1050
1>
b1xxxxxxx =
1@
b1 G
17
#1060
07
#1070
05
b10 G
17
#1080
07
#1090
0>
b0xxxxxxx =
0@
b11 G
17
#1100
07
#1110
15
b11000010 F
b100 G
17
#1120
07
06
#1130
1>
b11001010 F
b1xxxxxxx =
1@
b101 G
17
#1140
07
#1150
b11001110 F
b110 G
17
#1160
07
#1170
05
b111 G
17
#1180
07
#1190
0>
b0xxxxxxx =
0@
b0 G
17
#1200
b11001110 4
b11001110 C
b11001110 H
07
16
#1210
b1001110 F
b1 G
17
#1220
07
#1230
15
b1110 F
b10 G
17
#1240
07
#1250
1>
b101110 F
05
b1xxxxxxx =
1@
b11 G
17
#1260
07
#1270
0>
b0xxxxxxx =
0@
15
b100 G
17
#1280
07
06
#1290
1>
b1xxxxxxx =
1@
b101 G
17
#1300
07
#1310
b110 G
17
#1320
07
#1330
05
b111 G
17
#1340
07
#1350
0>
b0xxxxxxx =
0@
b0 G
17
#1360
b101110 4
b101110 C
b101110 H
07
16
#1370
b1 G
17
#1380
07
#1390
15
b10 G
17
#1400
07
#1410
1>
b1xxxxxxx =
1@
b11 G
17
#1420
07
#1430
b111110 F
b100 G
17
#1440
07
06
#1450
05
b101 G
17
#1460
07
#1470
0>
b0xxxxxxx =
0@
15
b111010 F
b110 G
17
#1480
07
#1490
1>
05
b1xxxxxxx =
1@
b111 G
17
#1500
07
#1510
0>
b0xxxxxxx =
0@
15
b0 G
17
#1520
b111010 4
b111010 C
b111010 H
07
16
#1530
1>
b10111010 F
b1xxxxxxx =
1@
b1 G
17
#1540
07
#1550
b11111010 F
b10 G
17
#1560
07
#1570
b11 G
17
#1580
07
#1590
b100 G
17
#1600
07
06
#1610
b101 G
17
#1620
07
#1630
b11111110 F
b110 G
17
#1640
07
#1650
05
b111 G
17
#1660
07
#1670
0>
b0xxxxxxx =
0@
b0 G
17
#1680
b11111110 4
b11111110 C
b11111110 H
07
16
#1690
b1111110 F
b1 G
17
#1700
07
#1710
15
b111110 F
b10 G
17
#1720
07
#1730
1>
05
b1xxxxxxx =
1@
b11 G
17
#1740
07
#1750
0>
b0xxxxxxx =
0@
b101110 F
b100 G
17
#1760
07
06
#1770
b100110 F
b101 G
17
#1780
07
#1790
15
b100010 F
b110 G
17
#1800
07
#1810
1>
05
b1xxxxxxx =
1@
b111 G
17
